Create a gt table from a summary object. — gtResult • PatientProfiles
…
    Examples

# \donttest{
library(PatientProfiles)

cdm <- mockPatientProfiles()

cdm$cohort1 %>%
  summariseCharacteristics(
    ageGroup = list(c(0, 19), c(20, 39), c(40, 59), c(60, 79), c(80, 150))
  )
#> ℹ adding demographics columns
#> ℹ summarising data
#> ✔ summariseCharacteristics finished!
#> # A tibble: 47 × 16
#>    result_id cdm_name result_type        package_name package_version group_name
#>        <int> <chr>    <chr>              <chr>        <chr>           <chr>     
#>  1         1 PP_MOCK  summarised_charac… PatientProf… 0.6.99.900      cohort_na…
#>  2         1 PP_MOCK  summarised_charac… PatientProf… 0.6.99.900      cohort_na…
#>  3         1 PP_MOCK  summarised_charac… PatientProf… 0.6.99.900      cohort_na…
#>  4         1 PP_MOCK  summarised_charac… PatientProf… 0.6.99.900      cohort_na…
#>  5         1 PP_MOCK  summarised_charac… PatientProf… 0.6.99.900      cohort_na…
#>  6         1 PP_MOCK  summarised_charac… PatientProf… 0.6.99.900      cohort_na…
#>  7         1 PP_MOCK  summarised_charac… PatientProf… 0.6.99.900      cohort_na…
#>  8         1 PP_MOCK  summarised_charac… PatientProf… 0.6.99.900      cohort_na…
#>  9         1 PP_MOCK  summarised_charac… PatientProf… 0.6.99.900      cohort_na…
#> 10         1 PP_MOCK  summarised_charac… PatientProf… 0.6.99.900      cohort_na…
#> # ℹ 37 more rows
#> # ℹ 10 more variables: group_level <chr>, strata_name <chr>,
#> #   strata_level <chr>, variable_name <chr>, variable_level <chr>,
#> #   estimate_name <chr>, estimate_type <chr>, estimate_value <chr>,
#> #   additional_name <chr>, additional_level <chr>
…
