Summarise characteristics of individuals — summariseCharacteristics • PatientProfiles
…
#> • variable_00028: count, percentage
#> • variable_00032: count, percentage
#> • cohort_start_date: min, q05, q25, median, q75, q95, max
#> • cohort_end_date: min, q05, q25, median, q75, q95, max
#> • variable_00030: min, q05, q25, median, q75, q95, max, mean, sd
#> • variable_00031: min, q05, q25, median, q75, q95, max, mean, sd
#> • variable_00029: min, q05, q25, median, q75, q95, max, mean, sd
#> • count_visit_occurrence_variable_00033: min, q05, q25, median, q75, q95, max,
#>   mean, sd
#> ! Table is collected to memory as not all requested estimates are supported on
#>   the database side
#> → Start summary of data, at 2024-05-11 12:04:13.487877
#> ✔ Summary finished, at 2024-05-11 12:04:13.64446
#> ✔ summariseCharacteristics finished!
#> # A tibble: 64 × 13
#>    result_id cdm_name group_name  group_level strata_name strata_level
#>        <int> <chr>    <chr>       <chr>       <chr>       <chr>       
#>  1         1 PP_MOCK  cohort_name cohort_1    overall     overall     
#>  2         1 PP_MOCK  cohort_name cohort_1    overall     overall     
#>  3         1 PP_MOCK  cohort_name cohort_1    overall     overall     
#>  4         1 PP_MOCK  cohort_name cohort_1    overall     overall     
#>  5         1 PP_MOCK  cohort_name cohort_1    overall     overall     
#>  6         1 PP_MOCK  cohort_name cohort_1    overall     overall     
#>  7         1 PP_MOCK  cohort_name cohort_1    overall     overall     
#>  8         1 PP_MOCK  cohort_name cohort_1    overall     overall     
#>  9         1 PP_MOCK  cohort_name cohort_1    overall     overall     
#> 10         1 PP_MOCK  cohort_name cohort_1    overall     overall     
#> # ℹ 54 more rows
#> # ℹ 7 more variables: variable_name <chr>, variable_level <chr>,
#> #   estimate_name <chr>, estimate_type <chr>, estimate_value <chr>,
#> #   additional_name <chr>, additional_level <chr>
…
